[
	{
		"thumb": "album-1",
		"title": "Track 1",
		"desc": "Description for track 1",
		"files": {
			"mp3": "Track1.mp3"
		}
	},
	{
		"thumb": "album-2",
		"title": "Track 2",
		"desc": "Description for track 2",
		"files": {
			"mp3": "Track2.mp3"
		}
	},
	{
		"thumb": "album-3",
		"title": "Track 3",
		"desc": "Description for track 3",
		"files": {
			"mp3": "Track3.mp3"
		}
	},
	{
		"thumb": "album-4",
		"title": "Track 4",
		"desc": "Description for track 4",
		"files": {
			"mp3": "Track4.mp3"
		}
	},
	{
		"thumb": "album-5",
		"title": "Track 5",
		"desc": "Description for track 5",
		"files": {
			"mp3": "Track5.mp3"
		}
	},
	{
		"thumb": "album-6",
		"title": "Track 6",
		"desc": "Description for track 6",
		"files": {
			"mp3": "Track6.mp3"
		}
	},
	{
		"thumb": "album-7",
		"title": "Track 7",
		"desc": "Description for track 7",
		"files": {
			"mp3": "Track7.mp3"
		}
	},
	{
		"thumb": "album-8",
		"title": "Track 8",
		"desc": "Description for track 8",
		"files": {
			"mp3": "Track8.mp3"
		}
	},
	{
		"thumb": "album-9",
		"title": "Track 9",
		"desc": "Description for track 9",
		"files": {
			"mp3": "Track9.mp3"
		}
	},
	{
		"thumb": "album-10",
		"title": "Track 10",
		"desc": "Description for track 10",
		"files": {
			"mp3": "Track10.mp3"
		}
	},
	{
		"thumb": "album-11",
		"title": "Track 11",
		"desc": "Description for track 11",
		"files": {
			"mp3": "Track11.mp3"
		}
	},
	{
		"thumb": "album-12",
		"title": "Track 12",
		"desc": "Description for track 12",
		"files": {
			"mp3": "Track12.mp3"
		}
	},
	{
		"thumb": "album-13",
		"title": "Track 13",
		"desc": "Description for track 13",
		"files": {
			"mp3": "Track13.mp3"
		}
	},
	{
		"thumb": "album-14",
		"title": "Track 14",
		"desc": "Description for track 14",
		"files": {
			"mp3": "Track14.mp3"
		}
	},
	{
		"thumb": "album-15",
		"title": "Track 15",
		"desc": "Description for track 15",
		"files": {
			"mp3": "Track15.mp3"
		}
	},
	{
		"thumb": "album-16",
		"title": "Track 16",
		"desc": "Description for track 16",
		"files": {
			"mp3": "Track16.mp3"
		}
	},
	{
		"thumb": "album-17",
		"title": "Track 17",
		"desc": "Description for track 17",
		"files": {
			"mp3": "Track17.mp3"
		}
	},
	{
		"thumb": "album-18",
		"title": "Track 18",
		"desc": "Description for track 18",
		"files": {
			"mp3": "Track18.mp3"
		}
	},
	{
		"thumb": "album-19",
		"title": "Track 19",
		"desc": "Description for track 19",
		"files": {
			"mp3": "Track19.mp3"
		}
	},
	{
		"thumb": "album-20",
		"title": "Track 20",
		"desc": "Description for track 20",
		"files": {
			"mp3": "Track20.mp3"
		}
	},
	{
		"thumb": "album-21",
		"title": "Track 21",
		"desc": "Description for track 21",
		"files": {
			"mp3": "Track21.mp3"
		}
	},
	{
		"thumb": "album-22",
		"title": "Track 22",
		"desc": "Description for track 22",
		"files": {
			"mp3": "Track22.mp3"
		}
	},
	{
		"thumb": "album-23",
		"title": "Track 23",
		"desc": "Description for track 23",
		"files": {
			"mp3": "Track23.mp3"
		}
	},
	{
		"thumb": "album-24",
		"title": "Track 24",
		"desc": "Description for track 24",
		"files": {
			"mp3": "Track24.mp3"
		}
	}
]